﻿{
  "Commands": [
    {
      "Nodes": [
        {
          "Text": "key"
        },
        {
          "Text": "clear"
        },
        {
          "Text": "all"
        }
      ]
    },
    {
      "Nodes": [
        {
          "Text": "key"
        },
        {
          "Text": "{0}",
          "ParameterType": "Uint32"
        },
        {
          "Text": "{1}",
          "ParameterType": "Uint32"
        },
        {
          "Text": "add"
        },
        {
          "Text": "{2}",
          "ParameterType": "Uint32"
        },
        {
          "Text": "{3}",
		  "ParameterType": "Token",
		  "Arity": null 
        }
      ]
    },
    {
      "Nodes": [
        {
          "Text": "key"
        },
        {
          "Text": "{0}",
          "ParameterType": "Uint32"
        },
        {
          "Text": "{1}",
          "ParameterType": "Uint32"
        },
        {
          "Text": "add"
        },
        {
          "Text": "{2}",
          "ParameterType": "Uint32"
        },
        {
          "Text": "{3}",
          "ParameterType": "Uint32"
        },
        {
          "Text": "{4}",
          "ParameterType": "Token",
	      "Arity": null
        }
      ]
    },
    {
      "Nodes": [
        {
          "Text": "key"
        },
        {
          "Text": "{0}",
          "ParameterType": "Uint32"
        },
        {
          "Text": "{1}",
          "ParameterType": "Uint32"
        },
        {
          "Text": "alert"
        },
        {
          "Text": "{2}",
          "ParameterType": "Uint32"
        }
      ]
    },
    {
      "Nodes": [
        {
          "Text": "key"
        },
        {
          "Text": "{0}",
          "ParameterType": "Uint32"
        },
        {
          "Text": "{1}",
          "ParameterType": "Uint32"
        },
        {
          "Text": "clear"
        }
      ]
    },
    {
      "Nodes": [
        {
          "Text": "key"
        },
        {
          "Text": "{0}",
          "ParameterType": "Uint32"
        },
        {
          "Text": "{1}",
          "ParameterType": "Uint32"
        },
        {
          "Text": "info"
        }
      ]
    }
  ]
}