/01 0 01 key 1 1 info
@01 0 01 OK IDLE -- alerts disabled
#01 0 01 cmd 00 0 home
/01 0 02 key 1 2 info
@01 0 02 OK IDLE -- alerts disabled
#01 0 02 cmd 02 1 move rel 500
/01 0 03 key 1 3 info
@01 0 03 OK IDLE -- alerts disabled
/01 0 04 key 1 4 info
@01 0 04 OK IDLE -- alerts disabled
/01 0 05 key 2 1 info
@01 0 05 OK IDLE -- alerts enabled
/01 0 06 key 2 2 info
@01 0 06 OK IDLE -- alerts enabled
/01 0 07 key 2 3 info
@01 0 07 OK IDLE -- alerts enabled
/01 0 08 key 2 4 info
@01 0 08 OK IDLE -- alerts enabled
/01 0 09 key 3 1 info
@01 0 09 OK IDLE -- alerts disabled
/01 0 10 key 3 2 info
@01 0 10 OK IDLE -- alerts disabled
/01 0 11 key 3 3 info
@01 0 11 OK IDLE -- alerts disabled
/01 0 12 key 3 4 info
@01 0 12 OK IDLE -- alerts disabled
/01 0 13 key 4 1 info
@01 0 13 OK IDLE -- alerts disabled
/01 0 14 key 4 2 info
@01 0 14 OK IDLE -- alerts disabled
#01 0 14 cmd 00 0 move stored 2
/01 0 15 key 4 3 info
@01 0 15 OK IDLE -- alerts disabled
#01 0 15 cmd 00 0 tools storepos 2 current
/01 0 16 key 4 4 info
@01 0 16 OK IDLE -- alerts disabled
/01 0 17 key 5 1 info
@01 0 17 OK IDLE -- alerts disabled
/01 0 18 key 5 2 info
@01 0 18 OK IDLE -- alerts disabled
#01 0 18 cmd 00 0 move stored 3
/01 0 19 key 5 3 info
@01 0 19 OK IDLE -- alerts disabled
#01 0 19 cmd 00 0 tools storepos 3 current
/01 0 20 key 5 4 info
@01 0 20 OK IDLE -- alerts disabled
/01 0 21 key 6 1 info
@01 0 21 OK IDLE -- alerts disabled
/01 0 22 key 6 2 info
@01 0 22 OK IDLE -- alerts disabled
#01 0 22 cmd 01 0 joystick 1 maxspeed 10000
/01 0 23 key 6 3 info
@01 0 23 OK IDLE -- alerts disabled
#01 0 23 cmd 01 0 joystick 1 maxspeed 44880
/01 0 24 key 6 4 info
@01 0 24 OK IDLE -- alerts disabled
/01 0 25 key 7 1 info
@01 0 25 OK IDLE -- alerts disabled
/01 0 26 key 7 2 info
@01 0 26 OK IDLE -- alerts disabled
#01 0 26 cmd 01 0 joystick 2 maxspeed 10000
/01 0 27 key 7 3 info
@01 0 27 OK IDLE -- alerts disabled
#01 0 27 cmd 01 0 joystick 2 maxspeed 44880
/01 0 28 key 7 4 info
@01 0 28 OK IDLE -- alerts disabled
/01 0 29 key 8 1 info
@01 0 29 OK IDLE -- alerts disabled
/01 0 30 key 8 2 info
@01 0 30 OK IDLE -- alerts disabled
#01 0 30 cmd 01 0 joystick 3 maxspeed 10000
/01 0 31 key 8 3 info
@01 0 31 OK IDLE -- alerts disabled
#01 0 31 cmd 01 0 joystick 3 maxspeed 44880
/01 0 32 key 8 4 info
@01 0 32 OK IDLE -- alerts disabled
/01 0 joystick 1 info
@01 0 OK IDLE -- 52 1 44880 2 0 50
/01 0 joystick 2 info
@01 0 OK IDLE -- 3 1 44880 2 0 50
/01 0 joystick 3 info
@01 0 OK IDLE -- 2 1 44880 2 0 50
/01 0 get comm.alert
@01 0 OK IDLE -- 0
/01 0 get joy.debug
@01 0 OK IDLE -- 0
/01 0 get virtual.numvirtual
@01 0 RJ IDLE -- BADCOMMAND
/01 0 get lockstep.numgroups
@01 0 RJ IDLE -- BADCOMMAND
/02 0 get virtual.numvirtual
@02 0 OK IDLE WR 1
/02 0 get lockstep.numgroups
@02 0 OK IDLE WR 1
/02 0 virtual 1 info
@02 0 OK IDLE FE 1 2 28.5 6000000
/02 0 lockstep 1 info
@02 0 OK IDLE FE 1 2 1074381824 0
/03 0 get virtual.numvirtual
@03 0 RJ IDLE -- BADCOMMAND
/03 0 get lockstep.numgroups
@03 0 RJ IDLE -- BADCOMMAND