/01 0 joystick 3 target 2 2
@01 0 OK IDLE -- 0
/01 0 joystick 3 speedprofile 1
@01 0 OK IDLE -- 0
/01 0 joystick 3 maxspeed 55555
@01 0 OK IDLE -- 0
/01 0 joystick 3 invert 1
@01 0 OK IDLE -- 0
/01 0 joystick 3 resolution 22
@01 0 OK IDLE -- 0
/01 0 joystick 3 info
@01 0 OK IDLE -- 2 2 55555 1 1 22
/02 0 get virtual.numvirtual
@02 0 RJ IDLE -- BADCOMMAND
/02 0 get lockstep.numgroups
@02 0 RJ IDLE -- BADCOMMAND
