/01 0 get driver.enabled
@01 0 OK IDLE -- 1
/01 0 servo print types
@01 0 OK IDLE -- 0
/01 0 
#01 0 type ffpid
@01 0 OK IDLE -- 0
/01 0 servo print params ffpid
@01 0 OK IDLE -- ffpid
/01 0 
#01 0 ffpid finv1
#01 0 ffpid finv2
#01 0 ffpid fcla
#01 0 ffpid fcla.hs
#01 0 ffpid fclg
#01 0 ffpid fclg.hs
#01 0 ffpid ki
#01 0 ffpid ki.hs
#01 0 ffpid kp
#01 0 ffpid kp.hs
#01 0 ffpid kd
#01 0 ffpid kd.hs
#01 0 ffpid fc1
#01 0 ffpid fc1.hs
#01 0 ffpid gain
@01 0 OK IDLE -- 0
/01 0 servo print paramsets
@01 0 OK IDLE -- 0
/01 0 
#01 0 paramset live
#01 0 paramset staging
#01 0 paramset 1
#01 0 paramset 2
@01 0 OK IDLE -- 0
/01 0 servo get startup
@01 0 OK IDLE -- 1
/01 0 get driver.current.servo
@01 0 OK IDLE -- 212
/01 0 servo live get type
@01 0 OK IDLE -- ffpid
/01 0 servo live get finv1
@01 0 OK IDLE -- 2
/01 0 servo live get finv2
@01 0 OK IDLE -- 6103515648
/01 0 servo live get fcla
@01 0 OK IDLE -- 994587840
/01 0 servo live get fcla.hs
@01 0 OK IDLE -- 997435840
/01 0 servo live get fclg
@01 0 OK IDLE -- 161297104
/01 0 servo live get fclg.hs
@01 0 OK IDLE -- 161040368
/01 0 servo live get ki
@01 0 OK IDLE -- 38407812
/01 0 servo live get ki.hs
@01 0 OK IDLE -- 4322004
/01 0 servo live get kp
@01 0 OK IDLE -- 24156209152
/01 0 servo live get kp.hs
@01 0 OK IDLE -- 5577973248
/01 0 servo live get kd
@01 0 OK IDLE -- 10558143201280
/01 0 servo live get kd.hs
@01 0 OK IDLE -- 5091669049344
/01 0 servo live get fc1
@01 0 OK IDLE -- 207879568
/01 0 servo live get fc1.hs
@01 0 OK IDLE -- 675231936
/01 0 servo live get gain
@01 0 OK IDLE -- 99337744
/01 0 servo 1 get type
@01 0 OK IDLE -- ffpid
/01 0 servo 1 get finv1
@01 0 OK IDLE -- 0
/01 0 servo 1 get finv2
@01 0 OK IDLE -- 6103515648
/01 0 servo 1 get fcla
@01 0 OK IDLE -- 994587840
/01 0 servo 1 get fcla.hs
@01 0 OK IDLE -- 997435840
/01 0 servo 1 get fclg
@01 0 OK IDLE -- 161297104
/01 0 servo 1 get fclg.hs
@01 0 OK IDLE -- 161040368
/01 0 servo 1 get ki
@01 0 OK IDLE -- 38407812
/01 0 servo 1 get ki.hs
@01 0 OK IDLE -- 4322004
/01 0 servo 1 get kp
@01 0 OK IDLE -- 24156209152
/01 0 servo 1 get kp.hs
@01 0 OK IDLE -- 5577973248
/01 0 servo 1 get kd
@01 0 OK IDLE -- 10558143201280
/01 0 servo 1 get kd.hs
@01 0 OK IDLE -- 5091669049344
/01 0 servo 1 get fc1
@01 0 OK IDLE -- 207879568
/01 0 servo 1 get fc1.hs
@01 0 OK IDLE -- 675231936
/01 0 servo 1 get gain
@01 0 OK IDLE -- 99337744
/01 0 servo 2 get type
@01 0 OK IDLE -- ffpid
/01 0 servo 2 get finv1
@01 0 OK IDLE -- 2
/01 0 servo 2 get finv2
@01 0 OK IDLE -- 6103515648
/01 0 servo 2 get fcla
@01 0 OK IDLE -- 994587840
/01 0 servo 2 get fcla.hs
@01 0 OK IDLE -- 997435840
/01 0 servo 2 get fclg
@01 0 OK IDLE -- 161297104
/01 0 servo 2 get fclg.hs
@01 0 OK IDLE -- 161040368
/01 0 servo 2 get ki
@01 0 OK IDLE -- 38407812
/01 0 servo 2 get ki.hs
@01 0 OK IDLE -- 4322004
/01 0 servo 2 get kp
@01 0 OK IDLE -- 24156209152
/01 0 servo 2 get kp.hs
@01 0 OK IDLE -- 5577973248
/01 0 servo 2 get kd
@01 0 OK IDLE -- 10558143201280
/01 0 servo 2 get kd.hs
@01 0 OK IDLE -- 5091669049344
/01 0 servo 2 get fc1
@01 0 OK IDLE -- 207879568
/01 0 servo 2 get fc1.hs
@01 0 OK IDLE -- 675231936
/01 0 servo 2 get gain
@01 0 OK IDLE -- 99337744
