﻿/02 1 get driver.enabled
@02 1 OK IDLE -- 1
/02 1 servo print types
/02 1 
@02 1 OK IDLE -- 0
#02 1 type ffpid
@02 1 OK IDLE -- 0
/02 1 servo print params ffpid
/02 1 
@02 1 OK IDLE -- ffpid
#02 1 ffpid gain
@02 1 OK IDLE -- 0
/02 1 servo print paramsets
/02 1 
@02 1 OK IDLE -- 0
#02 1 paramset live
#02 1 paramset staging
#02 1 paramset default
#02 1 paramset 1
#02 1 paramset 2
@02 1 OK IDLE -- 0
/02 1 servo get startup
@02 1 OK IDLE -- 1
/02 1 get driver.current.servo
@02 1 OK IDLE -- 212
/02 1 servo live get type
@02 1 OK IDLE -- ffpid
/02 1 servo live get gain
@02 1 OK IDLE -- 0.000000000
/02 1 servo 1 get type
@02 1 OK IDLE -- ffpid
/02 1 servo 1 get gain
@02 1 OK IDLE -- 1.000000000
/02 1 servo 2 get type
@02 1 OK IDLE -- ffpid
/02 1 servo 2 get gain
@02 1 OK IDLE -- 2.000000000
